[
    {
        "scenario": [
            {
                "action": "newContract",
                "id": "(static_id 0 41)",
                "export": "(\n            template_id (static_id 0 41)\n            storage (record 43 (address (literal (address \"tz1hdQscorfqMzFqYxnrApuS5i6QSTuoAp3w\") 44)) (big_map (big_map 45 ((literal (nat 0) 45) (literal (bool True) 45)))) (bls12_381_fr (literal (bls12_381_fr 1) 46)) (bls12_381_g1 (literal (bls12_381_g1 \"0x01\") 47)) (bls12_381_g2 (literal (bls12_381_g2 \"0x00\") 48)) (bool (literal (bool True) 49)) (bytes (literal (bytes \"0x00\") 50)) (chain_id (literal (chain_id_cst \"0xeda\") 51)) (int (literal (int 1) 53)) (key (literal (key \"edpk\") 54)) (key_hash (literal (key_hash \"tz1hdQscorfqMzFqYxnrApuS5i6QSTuoAp3w\") 55)) (list (list 57 (literal (string \"A String\") 57))) (map (map 58 ((literal (int 1) 58) (literal (string \"Something\") 58)))) (mutez (literal (mutez 1) 59)) (nat (literal (nat 0) 60)) (option (variant \"Some\" (literal (address \"tz1\") 62) 62)) (option2 (variant \"None\" (unit) 63)) (tuple (tuple 65 (literal (nat 0) 65) (literal (nat 1) 65) (literal (nat 3) 65))) (set (set 68 (literal (nat 1) 68))) (signature (literal (signature \"sig\") 69)) (string (literal (string \"A new String\") 70)) (timestamp (literal (timestamp 1571659294) 72)) (unit (unit)) (record (record 74 (prop1 (literal (int 1) 75)) (prop2 (literal (string \"2\") 76)) (prop3 (literal (nat 3) 77)))) (variant (variant \"value\" (literal (string \"TEST\") 79) 79)))\n            storage_type ((record ((address \"address\") (big_map (bigmap \"nat\" \"bool\")) (bls12_381_fr \"bls12_381_fr\") (bls12_381_g1 \"bls12_381_g1\") (bls12_381_g2 \"bls12_381_g2\") (bool \"bool\") (bytes \"bytes\") (chain_id \"chain_id\") (int \"int\") (key \"key\") (key_hash \"key_hash\") (list (list \"string\")) (map (map \"int\" \"string\")) (mutez \"mutez\") (nat \"nat\") (option (option \"address\")) (option2 (option \"nat\")) (tuple (tuple (\"nat\" \"nat\" \"nat\"))) (set (set \"nat\")) (signature \"signature\") (string \"string\") (timestamp \"timestamp\") (unit \"unit\") (record (record ((prop1 \"int\") (prop2 \"string\") (prop3 \"nat\")) (Some (((\"prop1\") (\"prop2\")) (\"prop3\"))))) (variant (variant ((A \"string\") (B \"nat\")) (Some Right)))) None))\n            messages ()\n            flags ()\n            globals ()\n            views ()\n            entry_points_layout ()\n            initial_metadata ()\n            balance ()\n        )",
                "line_no": 41,
                "show": true,
                "accept_unknown_types": false
            }
        ],
        "shortname": "test",
        "kind": "test",
        "warnings": []
    }
]