<?xml version="1.0" encoding="UTF-8" standalone="no"?>
<svg
   xmlns:dc="http://purl.org/dc/elements/1.1/"
   xmlns:cc="http://creativecommons.org/ns#"
   xmlns:rdf="http://www.w3.org/1999/02/22-rdf-syntax-ns#"
   xmlns:svg="http://www.w3.org/2000/svg"
   xmlns="http://www.w3.org/2000/svg"
   version="1.1"
   viewBox="0 0 20 20"
   height="24"
   width="24"
>
   <path
      d="M 7.5119237,11.996424 5.0437376,9.034565 7.0272323,9.022646 9.0107271,9.0107271 9.0167561,5.011919 9.022785,1.0131108 H 10 10.977215 l 0.006,3.9988082 0.006,3.9988081 1.983495,0.011919 1.983494,0.011919 -2.468186,2.9618589 c -1.357502,1.629023 -2.477137,2.96186 -2.488076,2.96186 -0.010939,0 -1.1305738,-1.332837 -2.4880763,-2.96186 z"
      style="fill:#006dcc;stroke-width:0.0238379"
   />
   <path
      d="M 2.677732,18.962633 C 2.2174943,18.884415 1.7593477,18.62013 1.4671253,18.264285 1.3195359,18.084562 1.1541505,17.771179 1.0805916,17.531856 l -0.054668,-0.177863 -0.00709,-2.675805 -0.00709,-2.675804 H 2.001705 2.9916663 v 2.50298 2.502979 H 10 17.008343 v -2.502979 -2.50298 h 0.989962 0.989961 l -0.0071,2.675804 -0.0071,2.675805 -0.0537,0.174374 c -0.209032,0.678749 -0.711131,1.181046 -1.391865,1.392415 l -0.174517,0.05419 -7.282479,0.0033 c -4.0053638,0.0018 -7.3325656,-0.0052 -7.393782,-0.01563 z"
      style="fill:#006dcc;stroke-width:0.0238379" 
   />
</svg>
