{
    "fileTypes": [
      "ml",
      "mli"
    ],
    "foldingStartMarker": "(\\b(module|class|)\\s.*?=\\s*$|\\bbegin|sig|struct|(object(\\s*\\(_?[a-z]+\\))?)\\s*$|\\bwhile\\s.*?\\bdo\\s*$|^let(?:\\s+rec)?\\s+[a-z_][a-zA-Z0-9_]*\\s+(?!=)\\S)",
    "foldingStopMarker": "(\\bend(\\s+in)?[ \\t]*(;{1,2}|=)?|\\bdone;?|^\\s*;;|^\\s*in)[ \\t]*$",
    "keyEquivalent": "^~O",
    "name": "OCaml",
    "patterns": [
      {
        "include": "#comments"
      },
      {
        "include": "#strings"
      },
      {
        "captures": {
          "1": {
            "name": "keyword.other.module-binding.ocaml"
          },
          "2": {
            "name": "keyword.other.module-definition.ocaml"
          },
          "3": {
            "name": "support.other.module.ocaml"
          },
          "4": {
            "name": "punctuation.separator.module-binding.ocmal"
          }
        },
        "match": "\\b(let)\\s+(module)\\s+([A-Z][a-zA-Z0-9'_]*)\\s*(=)",
        "name": "meta.module.binding"
      },
      {
        "begin": "\\b(let)\\s+(open)\\s+([A-Z][a-zA-Z0-9'_]*)(?=(\\.[A-Z][a-zA-Z0-9_]*)*)",
        "beginCaptures": {
          "1": {
            "name": "keyword.other.module-binding.ocaml"
          },
          "2": {
            "name": "keyword.other.ocaml"
          },
          "3": {
            "name": "support.other.module.ocaml"
          }
        },
        "end": "(\\s|$)",
        "name": "meta.module.openbinding",
        "patterns": [
          {
            "captures": {
              "1": {
                "name": "punctuation.separator.module-reference.ocaml"
              }
            },
            "match": "(\\.)([A-Z][a-zA-Z0-9'_]*)",
            "name": "support.other.module.ocaml"
          }
        ]
      },
      {
        "begin": "\\b(let|and)\\s+(?!\\(\\*)((rec\\s+)([a-z_][a-zA-Z0-9_']*)\\b|([a-z_][a-zA-Z0-9_']*|\\([^)]+\\))(?=\\s)((?=\\s*=\\s*(?=fun(?:ction)\\b))|(?!\\s*=)))",
        "beginCaptures": {
          "1": {
            "name": "keyword.other.function-definition.ocaml"
          },
          "3": {
            "name": "keyword.other.funtion-definition.ocaml"
          },
          "4": {
            "name": "entity.name.function.ocaml"
          },
          "5": {
            "name": "entity.name.function.ocaml"
          }
        },
        "end": "(?:(:)\\s*([^=]+))?(?:(=)|(=)\\s*(?=fun(?:ction)\\b))",
        "endCaptures": {
          "1": {
            "name": "punctuation.separator.function.type-constraint.ocaml"
          },
          "2": {
            "name": "storage.type.ocaml"
          },
          "3": {
            "name": "keyword.operator.ocaml"
          },
          "4": {
            "name": "keyword.operator.ocaml"
          }
        },
        "name": "meta.let-function.ocaml",
        "patterns": [
          {
            "include": "#variables"
          }
        ]
      },
      {
        "begin": "(?<=(\\(|\\s))(fun)\\s",
        "beginCaptures": {
          "2": {
            "name": "keyword.other.function-definition.ocaml"
          }
        },
        "end": "(->)",
        "endCaptures": {
          "1": {
            "name": "punctuation.separator.function-definition.ocaml"
          }
        },
        "name": "meta.anonymous-function.definition.ocaml",
        "patterns": [
          {
            "include": "#variables"
          }
        ]
      },
      {
        "begin": "^\\s*(?=type\\s)",
        "end": "(?=;;|\\[%|\\[@@|\\b(let|end|val|module|include|open|exception|class|external)\\b)",
        "name": "meta.type-definition-group.ocaml",
        "patterns": [
          {
            "begin": "\\b(type|and)\\s+([^=]*)(=)",
            "beginCaptures": {
              "1": {
                "name": "keyword.other.type-definition.ocaml"
              },
              "2": {
                "name": "storage.type.ocaml"
              },
              "3": {
                "name": "punctuation.separator.type-definition.ocaml"
              }
            },
            "end": "(?=;;|\\[%|\\[@@|\\b(type|and|let|end|val|module|include|open|exception|class|external)\\b)",
            "name": "meta.type-definition.ocaml",
            "patterns": [
              {
                "include": "#typedefs"
              }
            ]
          },
          {
            "begin": "\\b(type|and)\\s+([^=]*)",
            "beginCaptures": {
              "1": {
                "name": "keyword.other.type-definition.ocaml"
              },
              "2": {
                "name": "storage.type.ocaml"
              },
              "3": {
                "name": "punctuation.separator.type-definition.ocaml"
              }
            },
            "end": "(?=;;|\\[%|\\[@@|\\b(type|and|let|end|val|module|exception|class|external)\\b)",
            "name": "meta.type-definition.ocaml"
          },
          {
            "include": "#comments"
          }
        ]
      },
      {
        "begin": "\\b(with|function)(?=(?:\\s*$|.*->))\\b|((?<!\\S)(\\|)(?=(\\w|\\s).*->))",
        "beginCaptures": {
          "1": {
            "name": "keyword.control.match-definition.ocaml"
          },
          "2": {
            "name": "keyword.other.function-definition.ocaml"
          },
          "3": {
            "name": "keyword.control.match-definition.ocaml"
          }
        },
        "end": "(?:(->)|\\b(when)\\b|\\s(?=\\|))",
        "endCaptures": {
          "1": {
            "name": "punctuation.separator.match-definition.ocaml"
          },
          "2": {
            "name": "keyword.control.match-condition.ocaml"
          }
        },
        "name": "meta.pattern-match.ocaml",
        "patterns": [
          {
            "include": "#comments"
          },
          {
            "include": "#matchpatterns"
          }
        ]
      },
      {
        "captures": {
          "1": {
            "name": "keyword.other.class-type-definition.ocaml"
          },
          "2": {
            "name": "entity.name.type.class-type.ocaml"
          },
          "4": {
            "name": "storage.type.ocaml"
          }
        },
        "match": "^[ \\t]*(class\\s+type\\s+)((\\[\\s*('[A-Za-z][a-zA-Z0-9_']*(?:\\s*,\\s*'[A-Za-z][a-zA-Z0-9_']*)*)\\s*\\]\\s+)?[a-z_][a-zA-Z0-9'_]*)",
        "name": "meta.class.type-definition.ocaml"
      },
      {
        "begin": "^[ \\t]*(class)(?:\\s+(?!(?:virtual)\\s+))((\\[\\s*('[A-Za-z][a-zA-Z0-9_']*(?:\\s*,\\s*'[A-Za-z][a-zA-Z0-9_']*)*)\\s*\\]\\s+)?[a-z_][a-zA-Z0-9'_]*)",
        "beginCaptures": {
          "1": {
            "name": "keyword.other.class-definition.ocaml"
          },
          "2": {
            "name": "entity.name.type.class.ocaml"
          },
          "4": {
            "name": "storage.type.ocaml"
          }
        },
        "end": "(=)",
        "endCaptures": {
          "1": {
            "name": "keyword.operator.ocaml"
          }
        },
        "name": "meta.class.ocaml",
        "patterns": [
          {
            "include": "#variables"
          }
        ]
      },
      {
        "begin": "^[ \\t]*(class\\s+virtual\\s+)((\\[\\s*('[A-Za-z][a-zA-Z0-9_']*(?:\\s*,\\s*'[A-Za-z][a-zA-Z0-9_']*)*)\\s*\\]\\s+)?[a-z_][a-zA-Z0-9'_]*)",
        "beginCaptures": {
          "1": {
            "name": "keyword.other.class-definition.ocaml"
          },
          "2": {
            "name": "entity.name.type.class.ocaml"
          },
          "4": {
            "name": "storage.type.ocaml"
          }
        },
        "end": "(=)",
        "endCaptures": {
          "1": {
            "name": "keyword.operator.ocaml"
          }
        },
        "name": "meta.class.virtual.ocaml",
        "patterns": [
          {
            "include": "#variables"
          }
        ]
      },
      {
        "captures": {
          "1": {
            "name": "keyword.other.class-type-definition.ocaml"
          },
          "2": {
            "name": "entity.name.type.class-type.ocaml"
          },
          "4": {
            "name": "storage.type.ocaml"
          }
        },
        "match": "^[ \\t]*(class\\s+type\\s+virtual)((\\[\\s*('[A-Za-z][a-zA-Z0-9_']*(?:\\s*,\\s*'[A-Za-z][a-zA-Z0-9_']*)*)\\s*\\]\\s+)?[a-z_][a-zA-Z0-9'_]*)",
        "name": "meta.class.virtual.type-definition.ocaml"
      },
      {
        "begin": "(\\{)",
        "beginCaptures": {
          "1": {
            "name": "punctuation.definition.record.ocaml"
          }
        },
        "end": "(\\})",
        "endCaptures": {
          "1": {
            "name": "punctuation.definition.record.ocaml"
          }
        },
        "name": "meta.record.ocaml",
        "patterns": [
          {
            "match": "\\bwith\\b",
            "name": "keyword.other.language.ocaml"
          },
          {
            "begin": "(\\bmutable\\s+)?\\b([a-z_][a-zA-Z0-9_']*)\\s*(:)",
            "beginCaptures": {
              "1": {
                "name": "keyword.other.storage.modifier.ocaml"
              },
              "2": {
                "name": "source.ocaml"
              },
              "3": {
                "name": "punctuation.definition.record.ocaml"
              }
            },
            "end": "(;|(?=}))",
            "endCaptures": {
              "1": {
                "name": "keyword.operator.ocaml"
              }
            },
            "name": "meta.record.definition.ocaml",
            "patterns": [
              {
                "include": "#typedefs"
              }
            ]
          },
          {
            "include": "$self"
          }
        ]
      },
      {
        "begin": "\\b(object)\\s*(?:(\\()(_?[a-z]+)(\\)))?\\s*$",
        "beginCaptures": {
          "1": {
            "name": "keyword.other.object-definition.ocaml"
          },
          "2": {
            "name": "punctuation.definition.self-binding.ocaml"
          },
          "3": {
            "name": "entity.name.type.self-binding.ocaml"
          },
          "4": {
            "name": "punctuation.definition.self-binding.ocaml"
          }
        },
        "end": "\\b(end)\\b",
        "endCaptures": {
          "1": {
            "name": "keyword.control.object.ocaml"
          },
          "2": {
            "name": "punctuation.terminator.expression.ocaml"
          }
        },
        "name": "meta.object.ocaml",
        "patterns": [
          {
            "begin": "\\b(method)\\s+(virtual\\s+)?(private\\s+)?([a-z_][a-zA-Z0-9'_]*)",
            "beginCaptures": {
              "1": {
                "name": "keyword.other.method-definition.ocaml"
              },
              "2": {
                "name": "keyword.other.method-definition.ocaml"
              },
              "3": {
                "name": "keyword.other.method-restriction.ocaml"
              },
              "4": {
                "name": "entity.name.function.method.ocaml"
              }
            },
            "end": "(=|:)",
            "endCaptures": {
              "1": {
                "name": "keyword.operator.ocaml"
              }
            },
            "name": "meta.method.ocaml",
            "patterns": [
              {
                "include": "#variables"
              }
            ]
          },
          {
            "begin": "(constraint)\\s+([a-z_'][a-zA-Z0-9'_]*)\\s+(=)",
            "beginCaptures": {
              "1": {
                "name": "keyword.other.language.ocaml"
              },
              "2": {
                "name": "storage.type.ocaml"
              },
              "3": {
                "name": "keyword.operator.ocaml"
              }
            },
            "end": "(#[a-z_][a-zA-Z0-9'_]*)|(int|char|float|string|list|array|bool|unit|exn|option|int32|int64|nativeint|format4|lazy_t)|([a-z_][a-zA-Z0-9'_]*)\\s*$",
            "endCaptures": {
              "1": {
                "name": "storage.type.polymorphic-variant.ocaml"
              },
              "2": {
                "name": "storage.type.ocaml"
              },
              "3": {
                "name": "storage.type.ocaml"
              }
            },
            "name": "meta.object.type-constraint.ocaml"
          },
          {
            "include": "$self"
          }
        ]
      },
      {
        "captures": {
          "1": {
            "name": "punctuation.separator.method-call.ocaml"
          }
        },
        "match": "(?<=\\w|\\)|')(#)[a-z_][a-zA-Z0-9'_]*",
        "name": "meta.method-call.ocaml"
      },
      {
        "captures": {
          "1": {
            "name": "keyword.other.module-definition.ocaml"
          },
          "2": {
            "name": "entity.name.type.module.ocaml"
          },
          "3": {
            "name": "punctuation.separator.module-definition.ocaml"
          },
          "4": {
            "name": "entity.name.type.module-type.ocaml"
          }
        },
        "match": "^[ \\t]*(module)\\s+([A-Z_][a-zA-Z0-9'_]*)(?:\\s*(:)\\s*([A-Z][a-zA-Z0-9'_]*)?)?",
        "name": "meta.module.ocaml"
      },
      {
        "captures": {
          "1": {
            "name": "keyword.other.module-type-definition.ocaml"
          },
          "2": {
            "name": "entity.name.type.module-type.ocaml"
          }
        },
        "match": "^[ \\t]*(module\\s+type\\s+)([A-Z][a-zA-Z0-9'_]*)",
        "name": "meta.module.type.ocaml"
      },
      {
        "begin": "\\b(sig)\\b",
        "beginCaptures": {
          "1": {
            "name": "keyword.other.module.signature.ocaml"
          }
        },
        "end": "\\b(end)\\b",
        "endCaptures": {
          "1": {
            "name": "keyword.other.module.signature.ocaml"
          },
          "2": {
            "name": "punctuation.terminator.expression.ocaml"
          },
          "3": {
            "name": "keyword.operator.ocaml"
          }
        },
        "name": "meta.module.signature.ocaml",
        "patterns": [
          {
            "include": "#module-signature"
          },
          {
            "include": "$self"
          }
        ]
      },
      {
        "begin": "\\b(struct)\\b",
        "beginCaptures": {
          "1": {
            "name": "keyword.other.module.structure.ocaml"
          }
        },
        "end": "\\b(end)\\b",
        "endCaptures": {
          "1": {
            "name": "keyword.other.module.structure.ocaml"
          }
        },
        "name": "meta.module.structure.ocaml",
        "patterns": [
          {
            "include": "$self"
          }
        ]
      },
      {
        "include": "#moduleref"
      },
      {
        "begin": "\\b(open)\\s+([A-Z][a-zA-Z0-9'_]*)(?=(\\.[A-Z][a-zA-Z0-9_]*)*)",
        "beginCaptures": {
          "1": {
            "name": "keyword.other.ocaml"
          },
          "2": {
            "name": "support.other.module.ocaml"
          }
        },
        "end": "(\\s|$)",
        "name": "meta.module.open.ocaml",
        "patterns": [
          {
            "captures": {
              "1": {
                "name": "punctuation.separator.module-reference.ocaml"
              }
            },
            "match": "(\\.)([A-Z][a-zA-Z0-9'_]*)",
            "name": "support.other.module.ocaml"
          }
        ]
      },
      {
        "captures": {
          "1": {
            "name": "keyword.other.ocaml"
          },
          "2": {
            "name": "entity.name.type.exception.ocaml"
          },
          "3": {
            "name": "keyword.other.ocaml"
          }
        },
        "match": "\\b(exception)\\s+([A-Z][a-zA-Z0-9'_]*)(?:\\s+(of))?\\b",
        "name": "meta.exception.ocaml"
      },
      {
        "begin": "(?=(\\[<)(?![^\\[]+?[^>]]))",
        "end": "(>])",
        "endCaptures": {
          "1": {
            "name": "punctuation.definition.camlp4-stream.ocaml"
          }
        },
        "name": "source.camlp4.embedded.ocaml",
        "patterns": [
          {
            "include": "source.camlp4.ocaml"
          }
        ]
      },
      {
        "include": "#constants"
      },
      {
        "include": "#lists"
      },
      {
        "include": "#arrays"
      },
      {
        "begin": "(\\()(?=(~[a-z][a-zA-Z0-9_]*:|(\"(\\\\\"|[^\\\\\"])*\")|[^\\(\\)~\"])+(?<!:)(:>|:(?![:=])))",
        "beginCaptures": {
          "1": {
            "name": "punctuation.section.type-constraint.ocaml"
          }
        },
        "end": "(?<!:)(:>|:(?![:=]))(.*?)(\\))",
        "endCaptures": {
          "1": {
            "name": "punctuation.separator.type-constraint.ocaml"
          },
          "2": {
            "name": "storage.type.ocaml"
          },
          "3": {
            "name": "punctuation.section.type-constraint.ocaml"
          }
        },
        "name": "meta.type-constraint.ocaml",
        "patterns": [
          {
            "include": "$self"
          }
        ]
      },
      {
        "match": "^[ \\t]*#[a-zA-Z]+",
        "name": "keyword.other.directive.ocaml"
      },
      {
        "match": "^[ \\t]*#[0-9]*",
        "name": "keyword.other.directive.line-number.ocaml"
      },
      {
        "include": "#storagetypes"
      },
      {
        "match": "\\b(mutable|ref)\\b",
        "name": "keyword.other.storage.modifier.ocaml"
      },
      {
        "match": "`[A-Za-z][a-zA-Z0-9'_]*\\b",
        "name": "constant.language.variant.polymorphic.ocaml"
      },
      {
        "match": "\\b[A-Z][a-zA-Z0-9'_]*\\b",
        "name": "constant.language.variant.ocaml"
      },
      {
        "match": "!=|:=|>|<",
        "name": "keyword.operator.symbol.ocaml"
      },
      {
        "match": "[*+/-]\\.",
        "name": "keyword.operator.infix.floating-point.ocaml"
      },
      {
        "match": "~-\\.",
        "name": "keyword.operator.prefix.floating-point.ocaml"
      },
      {
        "match": "::",
        "name": "punctuation.definition.list.constructor.ocaml"
      },
      {
        "match": ";;",
        "name": "punctuation.terminator.expression.ocaml"
      },
      {
        "match": ";",
        "name": "punctuation.separator.ocaml"
      },
      {
        "match": "->",
        "name": "punctuation.separator.function-return.ocaml"
      },
      {
        "match": "[=<>@^&+\\-*/$%|][|!$%&*+./:<=>?@^~-]*",
        "name": "keyword.operator.infix.ocaml"
      },
      {
        "match": "\\bnot\\b|!|[!\\?~][!$%&*+./:<=>?@^~-]+",
        "name": "keyword.operator.prefix.ocaml"
      },
      {
        "captures": {
          "1": {
            "name": "punctuation.separator.argument-label.ocaml"
          }
        },
        "match": "~[a-z][a-z0-9'_]*(:)?",
        "name": "entity.name.tag.label.ocaml"
      },
      {
        "begin": "\\b(begin)\\b",
        "beginCaptures": {
          "1": {
            "name": "keyword.control.begin-end.ocaml"
          }
        },
        "end": "\\b(end)\\b",
        "endCaptures": {
          "1": {
            "name": "keyword.control.begin-end.ocaml"
          }
        },
        "name": "meta.begin-end-group.ocaml",
        "patterns": [
          {
            "include": "$self"
          }
        ]
      },
      {
        "begin": "\\b(for)\\b",
        "beginCaptures": {
          "1": {
            "name": "keyword.control.for-loop.ocaml"
          }
        },
        "end": "\\b(done)\\b",
        "endCaptures": {
          "1": {
            "name": "keyword.control.for-loop.ocaml"
          }
        },
        "name": "meta.for-loop.ocaml",
        "patterns": [
          {
            "match": "\\bdo\\b",
            "name": "keyword.control.loop.ocaml"
          },
          {
            "include": "$self"
          }
        ]
      },
      {
        "begin": "\\b(while)\\b",
        "beginCaptures": {
          "1": {
            "name": "keyword.control.while-loop.ocaml"
          }
        },
        "end": "\\b(done)\\b",
        "endCaptures": {
          "1": {
            "name": "keyword.control.while-loop.ocaml"
          }
        },
        "name": "meta.while-loop.ocaml",
        "patterns": [
          {
            "match": "\\bdo\\b",
            "name": "keyword.control.loop.ocaml"
          },
          {
            "include": "$self"
          }
        ]
      },
      {
        "begin": "\\(",
        "end": "\\)",
        "name": "meta.paren-group.ocaml",
        "patterns": [
          {
            "include": "$self"
          }
        ]
      },
      {
        "match": "\\b(and|land|lor|lsl|lsr|asr|lnot|lxor|mod|or)\\b",
        "name": "keyword.operator.ocaml"
      },
      {
        "match": "\\b(downto|if|else|match|then|to|when|with|try)\\b",
        "name": "keyword.control.ocaml"
      },
      {
        "match": "\\b(as|assert|class|constraint|exception|external|functor|in|include|inherit|initializer|lazy|let|mod|module|mutable|new|object|open|private|rec|sig|struct|type|virtual)\\b",
        "name": "keyword.other.ocaml"
      },
      {
        "include": "#module-signature"
      },
      {
        "match": "(’|‘|“|”)",
        "name": "invalid.illegal.unrecognized-character.ocaml"
      }
    ],
    "repository": {
      "arrays": {
        "patterns": [
          {
            "begin": "(\\[\\|)",
            "beginCaptures": {
              "1": {
                "name": "punctuation.definition.array.begin.ocaml"
              }
            },
            "end": "(\\|])",
            "endCaptures": {
              "1": {
                "name": "punctuation.definition.array.end.ocaml"
              }
            },
            "name": "meta.array.ocaml",
            "patterns": [
              {
                "include": "#arrays"
              },
              {
                "include": "$self"
              }
            ]
          }
        ]
      },
      "comments": {
        "patterns": [
          {
            "begin": "\\(\\*",
            "beginCaptures": {
              "0": {
                "name": "punctuation.definition.comment.begin.ocaml"
              }
            },
            "end": "\\*\\)",
            "endCaptures": {
              "0": {
                "name": "punctuation.definition.comment.end.ocaml"
              }
            },
            "name": "comment.block.ocaml",
            "patterns": [
              {
                "include": "#comments"
              }
            ]
          }
        ]
      },
      "comments_inner": {
        "patterns": [
          {
            "include": "#comments"
          },
          {
            "begin": "(?=[^\\\\])(\")",
            "end": "\"",
            "name": "comment.block.string.quoted.double.ocaml",
            "patterns": [
              {
                "match": "\\\\(x[a-fA-F0-9][a-fA-F0-9]|[0-2]\\d\\d|[bnrt'\"\\\\])",
                "name": "comment.block.string.constant.character.escape.ocaml"
              }
            ]
          }
        ]
      },
      "constants": {
        "patterns": [
          {
            "captures": {
              "1": {
                "name": "meta.empty-typing-pair.ocaml"
              },
              "2": {
                "name": "meta.empty-typing-pair.parens.ocaml"
              },
              "3": {
                "name": "meta.empty-typing-pair.ocaml"
              }
            },
            "match": "(?:\\[\\s*(\\])|\\((\\))|\\(\\s*(\\)))",
            "name": "constant.language.pseudo-variable.ocaml"
          },
          {
            "match": "\\b(true|false)\\b",
            "name": "constant.language.boolean.ocaml"
          },
          {
            "match": "\\b-?[0-9][0-9_]*((\\.([0-9][0-9_]*([eE][+-]??[0-9][0-9_]*)?)?)|([eE][+-]??[0-9][0-9_]*))",
            "name": "constant.numeric.floating-point.ocaml"
          },
          {
            "match": "\\b(-?((0(x|X)[0-9a-fA-F][0-9a-fA-F_]*)|(0(o|O)[0-7][0-7_]*)|(0(b|B)[01][01_]*)|([0-9][0-9_]*)))n",
            "name": "constant.numeric.integer.nativeint.ocaml"
          },
          {
            "match": "\\b(-?((0(x|X)[0-9a-fA-F][0-9a-fA-F_]*)|(0(o|O)[0-7][0-7_]*)|(0(b|B)[01][01_]*)|([0-9][0-9_]*)))L",
            "name": "constant.numeric.integer.int64.ocaml"
          },
          {
            "match": "\\b(-?((0(x|X)[0-9a-fA-F][0-9a-fA-F_]*)|(0(o|O)[0-7][0-7_]*)|(0(b|B)[01][01_]*)|([0-9][0-9_]*)))l",
            "name": "constant.numeric.integer.int32.ocaml"
          },
          {
            "match": "\\b(-?((0(x|X)[0-9a-fA-F][0-9a-fA-F_]*)|(0(o|O)[0-7][0-7_]*)|(0(b|B)[01][01_]*)|([0-9][0-9_]*)))",
            "name": "constant.numeric.integer.ocaml"
          },
          {
            "match": "'(.|\\\\(x[a-fA-F0-9][a-fA-F0-9]|[0-2]\\d\\d|[bnrt'\"\\\\]))'",
            "name": "constant.character.ocaml"
          }
        ]
      },
      "definite_storagetypes": {
        "patterns": [
          {
            "include": "#storagetypes"
          },
          {
            "match": "\\b[a-zA-Z0-9'_]+\\b",
            "name": "storage.type.ocaml"
          }
        ]
      },
      "lists": {
        "patterns": [
          {
            "begin": "(\\[)(?!\\||<|>)",
            "beginCaptures": {
              "1": {
                "name": "punctuation.definition.list.begin.ocaml"
              }
            },
            "end": "(?<!\\||>)(])",
            "endCaptures": {
              "1": {
                "name": "punctuation.definition.list.end.ocaml"
              }
            },
            "name": "meta.list.ocaml",
            "patterns": [
              {
                "include": "#lists"
              },
              {
                "include": "$self"
              }
            ]
          }
        ]
      },
      "matchpatterns": {
        "patterns": [
          {
            "match": "\\b_\\b",
            "name": "constant.language.universal-match.ocaml"
          },
          {
            "match": "\\|(?=\\s*\\S)",
            "name": "punctuation.separator.match-pattern.ocaml"
          },
          {
            "begin": "(\\()(?=(?!=.*?->).*?\\|)",
            "beginCaptures": {
              "1": {
                "name": "punctuation.definition.match-option.ocaml"
              }
            },
            "end": "(\\))",
            "endCaptures": {
              "1": {
                "name": "punctuation.definition.match-option.ocaml"
              }
            },
            "name": "meta.match-option.ocaml",
            "patterns": [
              {
                "match": "\\|",
                "name": "punctuation.separator.match-option.ocaml"
              },
              {
                "include": "#matchpatterns"
              }
            ]
          },
          {
            "include": "#moduleref"
          },
          {
            "include": "#constants"
          },
          {
            "include": "#variables"
          },
          {
            "include": "$self"
          }
        ]
      },
      "module-signature": {
        "patterns": [
          {
            "begin": "(val)\\s+([a-z_][a-zA-Z0-9_']*)\\s*(:)",
            "beginCaptures": {
              "1": {
                "name": "keyword.other.ocaml"
              },
              "2": {
                "name": "entity.name.type.value-signature.ocaml"
              },
              "3": {
                "name": "punctuation.separator.type-constraint.ocaml"
              }
            },
            "end": "(?=\\b(type|val|external|class|module|end)\\b)|^\\s*$",
            "name": "meta.module.signature.val.ocaml",
            "patterns": [
              {
                "captures": {
                  "1": {
                    "name": "keyword.other.question-mark.optional-parameter.ocaml"
                  },
                  "2": {
                    "name": "variable.parameter.label.optional.ocaml"
                  },
                  "3": {
                    "name": "punctuation.separator.optional-parameter.ocaml"
                  }
                },
                "comment": "variable.parameter.ameter.optional.ocaml",
                "match": "(\\?)([a-z][a-zA-Z0-9_]*)\\s*(:)"
              },
              {
                "begin": "([a-z][a-zA-Z0-9'_]*)\\s*(:)\\s*",
                "beginCaptures": {
                  "1": {
                    "name": "variable.parameter.label.ocaml"
                  },
                  "2": {
                    "name": "punctuation.separator.label.ocaml"
                  },
                  "3": {
                    "name": "storage.type.ocaml"
                  }
                },
                "comment": "variable.parameter.labeled.ocaml",
                "end": "\\s",
                "patterns": [
                  {
                    "include": "#definite_storagetypes"
                  }
                ]
              },
              {
                "include": "#typedefs"
              }
            ]
          },
          {
            "begin": "(external)\\s+([a-z_][a-zA-Z0-9_']*)\\s*(:)",
            "beginCaptures": {
              "1": {
                "name": "keyword.other.ocaml"
              },
              "2": {
                "name": "entity.name.type.external-signature.ocaml"
              },
              "3": {
                "name": "punctuation.separator.type-constraint.ocaml"
              }
            },
            "end": "(?=\\b(type|val|external|class|module|let|end)\\b)|^\\s*$",
            "name": "meta.module.signature.external.ocaml",
            "patterns": [
              {
                "captures": {
                  "1": {
                    "name": "keyword.other.question-mark.optional-parameter.ocaml"
                  },
                  "2": {
                    "name": "variable.parameter.label.optional.ocaml"
                  },
                  "3": {
                    "name": "punctuation.separator.optional-parameter.ocaml"
                  }
                },
                "comment": "variable.parameter.optional.ocaml",
                "match": "(\\?)([a-z][a-zA-Z0-9_]*)\\s*(:)"
              },
              {
                "begin": "(~)([a-z][a-zA-Z0-9'_]*)\\s*(:)\\s*",
                "beginCaptures": {
                  "1": {
                    "name": "keyword.other.tilde.labeled-parameter.ocaml"
                  },
                  "2": {
                    "name": "variable.parameter.label.ocaml"
                  },
                  "3": {
                    "name": "punctuation.separator.label.ocaml"
                  }
                },
                "comment": "variable.parameter.labeled.ocaml",
                "end": "\\s",
                "patterns": [
                  {
                    "include": "#variables"
                  }
                ]
              },
              {
                "include": "#strings"
              },
              {
                "include": "#typedefs"
              }
            ]
          }
        ]
      },
      "moduleref": {
        "patterns": [
          {
            "beginCaptures": {
              "1": {
                "name": "support.other.module.ocaml"
              },
              "2": {
                "name": "punctuation.separator.module-reference.ocaml"
              }
            },
            "match": "\\b([A-Z][a-zA-Z0-9'_]*)(\\.)",
            "name": "meta.module-reference.ocaml"
          }
        ]
      },
      "storagetypes": {
        "patterns": [
          {
            "match": "\\b(int|char|float|string|list|array|bool|unit|exn|option|int32|int64|nativeint|format4|lazy_t)\\b",
            "name": "storage.type.ocaml"
          },
          {
            "match": "#[a-z_][a-zA-Z0-9_]*",
            "name": "storage.type.variant.polymorphic.ocaml"
          }
        ]
      },
      "strings": {
        "patterns": [
          {
            "begin": "(?=[^\\\\])(\")",
            "beginCaptures": {
              "1": {
                "name": "punctuation.definition.string.begin.ocaml"
              }
            },
            "end": "(\")",
            "endCaptures": {
              "1": {
                "name": "punctuation.definition.string.end.ocaml"
              }
            },
            "name": "string.quoted.double.ocaml",
            "patterns": [
              {
                "match": "\\\\$[ \\t]*",
                "name": "punctuation.separator.string.ignore-eol.ocaml"
              },
              {
                "match": "\\\\(x[a-fA-F0-9][a-fA-F0-9]|[0-2]\\d\\d|[bnrt'\"\\\\])",
                "name": "constant.character.string.escape.ocaml"
              },
              {
                "match": "\\\\[\\|\\(\\)1-9$^.*+?\\[\\]]",
                "name": "constant.character.regexp.escape.ocaml"
              },
              {
                "match": "\\\\(?!(x[a-fA-F0-9][a-fA-F0-9]|[0-2]\\d\\d|[bnrt'\"\\\\]|[\\|\\(\\)1-9$^.*+?\\[\\]]|$[ \\t]*))(?:.)",
                "name": "invalid.illegal.character.string.escape"
              }
            ]
          },
          {
            "begin": "{([a-z_]*)\\|",
            "end": "\\|\\1}",
            "name": "string.quoted.brace.ocaml"
          }
        ]
      },
      "typedefs": {
        "patterns": [
          {
            "match": "\\|",
            "name": "punctuation.separator.variant-definition.ocaml"
          },
          {
            "include": "#comments_inner"
          },
          {
            "begin": "\\(",
            "end": "\\)",
            "name": "meta.paren-group.ocaml",
            "patterns": [
              {
                "match": "\\bmodule\\b",
                "name": "keyword.other.ocaml"
              },
              {
                "include": "#typedefs"
              }
            ]
          },
          {
            "match": "\\bof\\b",
            "name": "keyword.other.ocaml"
          },
          {
            "include": "#storagetypes"
          },
          {
            "match": "(?<=\\s|\\()['a-z_][a-zA-Z0-9_]*\\b",
            "name": "storage.type.ocaml"
          },
          {
            "captures": {
              "1": {
                "name": "support.other.module.ocaml"
              },
              "2": {
                "name": "storage.type.module.ocaml"
              }
            },
            "match": "\\b((?:[A-Z][a-zA-Z0-9'_]*)(?:\\.[A-Z][a-zA-Z0-9'_]+)*)(\\.[a-zA-Z0-9'_]+)",
            "name": "meta.module.type.ocaml"
          },
          {
            "begin": "(\\[(>|<)?)",
            "beginCaptures": {
              "1": {
                "name": "punctuation.definition.polymorphic-variant.ocaml"
              }
            },
            "end": "(\\])",
            "endCaptures": {
              "1": {
                "name": "punctuation.definition.polymorphic-variant.ocaml"
              }
            },
            "name": "meta.polymorphic-variant.definition.ocaml",
            "patterns": [
              {
                "include": "#typedefs"
              }
            ]
          },
          {
            "include": "$self"
          },
          {
            "match": "\\|",
            "name": "punctuation.separator.algebraic-type.ocaml"
          }
        ]
      },
      "variables": {
        "patterns": [
          {
            "include": "#constants"
          },
          {
            "include": "#moduleref"
          },
          {
            "begin": "(~)([a-z][a-zA-Z0-9'_]*)(\\s*:\\s*)?",
            "beginCaptures": {
              "1": {
                "name": "keyword.other.tilde.labeled-parameter.ocaml"
              },
              "2": {
                "name": "variable.parameter.label.ocaml"
              },
              "3": {
                "name": "punctuation.separator.label.ocaml"
              }
            },
            "comment": "variable.parameter.labeled.ocaml",
            "end": "(?=(->|\\s))",
            "patterns": [
              {
                "include": "#variables"
              }
            ]
          },
          {
            "captures": {
              "1": {
                "name": "keyword.other.question-mark.optional-parameter.ocaml"
              },
              "2": {
                "name": "variable.parameter.label.optional.ocaml"
              }
            },
            "comment": "variable.parameter.optional.ocaml",
            "match": "(\\?)([a-z][a-zA-Z0-9_]*)"
          },
          {
            "begin": "(\\?)(\\()([a-z_][a-zA-Z0-9'_]*)\\s*(=)",
            "beginCaptures": {
              "1": {
                "name": "keyword.other.question-mark.optional-parameter.ocaml"
              },
              "2": {
                "name": "punctuation.definition.optional-parameter.ocaml"
              },
              "3": {
                "name": "variable.parameter.label.optional.ocaml"
              },
              "4": {
                "name": "punctuation.separator.optional-parameter-assignment.ocaml"
              }
            },
            "comment": "variable.parameter.optional.ocaml",
            "end": "(\\))",
            "endCaptures": {
              "1": {
                "name": "punctuation.definition.optional-parameter.ocaml"
              }
            },
            "patterns": [
              {
                "include": "$self"
              }
            ]
          },
          {
            "begin": "(\\()(?=(~[a-z][a-zA-Z0-9_]*:|(\"(\\\\\"|[^\\\\\"])*\")|[^\\(\\)~\"])+(?<!:)(:>|:(?![:=])))",
            "beginCaptures": {
              "1": {
                "name": "punctuation.section.type-constraint.ocaml"
              }
            },
            "end": "(\\))",
            "endCaptures": {
              "1": {
                "name": "punctuation.section.type-constraint.ocaml"
              }
            },
            "name": "meta.parameter.type-constrained.ocaml",
            "patterns": [
              {
                "begin": "(?<!:)(:>|:(?![:=]))",
                "beginCaptures": {
                  "1": {
                    "name": "punctuation.separator.type-constraint.ocaml"
                  }
                },
                "end": "(?=\\))",
                "name": "storage.type.ocaml",
                "patterns": [
                  {
                    "begin": "\\(",
                    "end": "\\)",
                    "name": "meta.paren.group"
                  }
                ]
              },
              {
                "include": "#variables"
              }
            ]
          },
          {
            "include": "#comments_inner"
          },
          {
            "begin": "\\(",
            "end": "\\)",
            "name": "meta.paren-group.ocaml",
            "patterns": [
              {
                "include": "#variables"
              }
            ]
          },
          {
            "begin": "(\\()",
            "beginCaptures": {
              "1": {
                "name": "punctuation.definition.tuple.ocaml"
              }
            },
            "comment": "variable.parameter.tuple.ocaml",
            "end": "(\\))",
            "endCaptures": {
              "1": {
                "name": "punctuation.definition.tuple.ocaml"
              }
            },
            "patterns": [
              {
                "include": "#matchpatterns"
              },
              {
                "include": "#variables"
              },
              {
                "match": ",",
                "name": "punctuation.separator.tuple.ocaml"
              }
            ]
          },
          {
            "begin": "(\\{)",
            "beginCaptures": {
              "1": {
                "name": "punctuation.definition.record.ocaml"
              }
            },
            "comment": "variable.parameter.record.ocaml",
            "end": "(\\})",
            "endCaptures": {
              "1": {
                "name": "punctuation.definition.record.ocaml"
              }
            },
            "patterns": [
              {
                "include": "#moduleref"
              },
              {
                "begin": "\\b([a-z][a-zA-Z0-9'_]*)\\s*(=)",
                "beginCaptures": {
                  "1": {
                    "name": "variable.record.label.ocaml"
                  },
                  "2": {
                    "name": "punctuation.separator.record.field-assignment.ocaml"
                  }
                },
                "end": "(;)|(?=\\})",
                "endCaptures": {
                  "1": {
                    "name": "punctuation.separator.record.ocaml"
                  }
                },
                "name": "meta.recordfield.match.ocaml",
                "patterns": [
                  {
                    "include": "#matchpatterns"
                  }
                ]
              }
            ]
          },
          {
            "include": "#storagetypes"
          },
          {
            "match": "\\bas\\b",
            "name": "keyword.other.ocaml"
          },
          {
            "match": "\\b[a-z_][a-zA-Z0-9'_]*",
            "name": "variable.parameter.ocaml"
          }
        ]
      }
    },
    "scopeName": "source.ocaml",
    "uuid": "F816FA69-6EE8-11D9-BF2D-000D93589AF6"
  }
