// Jest Snapshot v1, https://goo.gl/fbAQLP

exports[`Editor Page Editor renders correctly 1`] = `
<div>
  <div
    class="makeStyles-root-1"
  >
    <div
      class="makeStyles-root-5"
    >
      <div
        class="MuiGrid-root MuiGrid-container MuiGrid-spacing-xs-undefined css-9cyib4-MuiGrid-root"
      >
        <div
          class="MuiGrid-root MuiGrid-item MuiGrid-grid-xs-12 MuiGrid-grid-sm-6 makeStyles-gridItem-6 css-wdtwov-MuiGrid-root"
        >
          <div
            class="MuiButtonGroup-root MuiButtonGroup-outlined MuiButtonGroup-disableElevation css-1nt35cz-MuiButtonGroup-root"
            role="group"
          >
            <button
              aria-label="run-code"
              class="MuiButton-root MuiButton-contained MuiButton-containedPrimary MuiButton-sizeMedium MuiButton-containedSizeMedium MuiButton-disableElevation MuiButtonBase-root MuiButtonGroup-grouped MuiButtonGroup-groupedHorizontal MuiButtonGroup-groupedOutlined MuiButtonGroup-groupedOutlinedHorizontal MuiButtonGroup-groupedOutlinedPrimary css-zddlty-MuiButtonBase-root-MuiButton-root"
              data-mui-internal-clone-element="true"
              tabindex="0"
              type="button"
            >
              Run
              <span
                class="MuiButton-endIcon MuiButton-iconSizeMedium css-9tj150-MuiButton-endIcon"
              >
                <svg
                  aria-hidden="true"
                  class="MuiSvgIcon-root MuiSvgIcon-fontSizeMedium css-i4bv87-MuiSvgIcon-root"
                  data-testid="PlayArrowIcon"
                  focusable="false"
                  viewBox="0 0 24 24"
                >
                  <path
                    d="M8 5v14l11-7z"
                  />
                </svg>
              </span>
            </button>
            <button
              aria-controls="tests-menu"
              aria-haspopup="true"
              class="MuiButton-root MuiButton-outlined MuiButton-outlinedPrimary MuiButton-sizeMedium MuiButton-outlinedSizeMedium MuiButton-disableElevation MuiButtonBase-root Mui-disabled MuiButtonGroup-grouped MuiButtonGroup-groupedHorizontal MuiButtonGroup-groupedOutlined MuiButtonGroup-groupedOutlinedHorizontal MuiButtonGroup-groupedOutlinedPrimary css-1p5nen7-MuiButtonBase-root-MuiButton-root"
              disabled=""
              tabindex="-1"
              type="button"
            >
              Targets
              <span
                class="MuiButton-endIcon MuiButton-iconSizeMedium css-9tj150-MuiButton-endIcon"
              >
                <svg
                  aria-hidden="true"
                  class="MuiSvgIcon-root MuiSvgIcon-fontSizeMedium css-i4bv87-MuiSvgIcon-root"
                  data-testid="ArrowDropDownIcon"
                  focusable="false"
                  viewBox="0 0 24 24"
                >
                  <path
                    d="m7 10 5 5 5-5z"
                  />
                </svg>
              </span>
            </button>
            <button
              aria-label="clear-outputs"
              class="MuiButton-root MuiButton-outlined MuiButton-outlinedPrimary MuiButton-sizeMedium MuiButton-outlinedSizeMedium MuiButton-disableElevation MuiButtonBase-root MuiButtonGroup-grouped MuiButtonGroup-groupedHorizontal MuiButtonGroup-groupedOutlined MuiButtonGroup-groupedOutlinedHorizontal MuiButtonGroup-groupedOutlinedPrimary css-1p5nen7-MuiButtonBase-root-MuiButton-root"
              data-mui-internal-clone-element="true"
              tabindex="0"
              type="button"
            >
              <svg
                aria-hidden="true"
                class="MuiSvgIcon-root MuiSvgIcon-fontSizeMedium css-i4bv87-MuiSvgIcon-root"
                data-testid="DeleteSweepIcon"
                focusable="false"
                viewBox="0 0 24 24"
              >
                <path
                  d="M15 16h4v2h-4zm0-8h7v2h-7zm0 4h6v2h-6zM3 18c0 1.1.9 2 2 2h6c1.1 0 2-.9 2-2V8H3v10zM14 5h-3l-1-1H6L5 5H2v2h12z"
                />
              </svg>
            </button>
          </div>
        </div>
        <div
          class="MuiGrid-root MuiGrid-item MuiGrid-grid-xs-12 MuiGrid-grid-sm-6 makeStyles-gridItem-6 css-1oqu5qe-MuiGrid-root"
        >
          <button
            aria-controls="templates-menu"
            aria-haspopup="true"
            aria-label="templates"
            class="MuiButton-root MuiButton-contained MuiButton-containedPrimary MuiButton-sizeMedium MuiButton-containedSizeMedium MuiButtonBase-root  css-sghohy-MuiButtonBase-root-MuiButton-root"
            data-mui-internal-clone-element="true"
            tabindex="0"
            type="button"
          >
            <span
              class="MuiButton-startIcon MuiButton-iconSizeMedium css-1d6wzja-MuiButton-startIcon"
            >
              <svg
                aria-hidden="true"
                class="MuiSvgIcon-root MuiSvgIcon-fontSizeMedium css-i4bv87-MuiSvgIcon-root"
                data-testid="SquareFootIcon"
                focusable="false"
                viewBox="0 0 24 24"
              >
                <path
                  d="m17.66 17.66-1.06 1.06-.71-.71 1.06-1.06-1.94-1.94-1.06 1.06-.71-.71 1.06-1.06-1.94-1.94-1.06 1.06-.71-.71 1.06-1.06L9.7 9.7l-1.06 1.06-.71-.71 1.06-1.06-1.94-1.94-1.06 1.06-.71-.71 1.06-1.06L4 4v14c0 1.1.9 2 2 2h14l-2.34-2.34zM7 17v-5.76L12.76 17H7z"
                />
              </svg>
            </span>
            ide.templatesMenu.label
          </button>
          <hr
            class="MuiDivider-root MuiDivider-fullWidth MuiDivider-vertical MuiDivider-flexItem css-kgnlei-MuiDivider-root"
          />
          <button
            aria-controls="tools-menu"
            aria-haspopup="true"
            aria-label="tools"
            class="MuiButton-root MuiButton-contained MuiButton-containedPrimary MuiButton-sizeMedium MuiButton-containedSizeMedium MuiButtonBase-root  css-sghohy-MuiButtonBase-root-MuiButton-root"
            data-mui-internal-clone-element="true"
            tabindex="0"
            type="button"
          >
            <span
              class="MuiButton-startIcon MuiButton-iconSizeMedium css-1d6wzja-MuiButton-startIcon"
            >
              <svg
                aria-hidden="true"
                class="MuiSvgIcon-root MuiSvgIcon-fontSizeMedium css-i4bv87-MuiSvgIcon-root"
                data-testid="BuildIcon"
                focusable="false"
                viewBox="0 0 24 24"
              >
                <path
                  d="m22.7 19-9.1-9.1c.9-2.3.4-5-1.5-6.9-2-2-5-2.4-7.4-1.3L9 6 6 9 1.6 4.7C.4 7.1.9 10.1 2.9 12.1c1.9 1.9 4.6 2.4 6.9 1.5l9.1 9.1c.4.4 1 .4 1.4 0l2.3-2.3c.5-.4.5-1.1.1-1.4z"
                />
              </svg>
            </span>
            Tools
            <span
              class="MuiButton-endIcon MuiButton-iconSizeMedium css-9tj150-MuiButton-endIcon"
            >
              <svg
                aria-hidden="true"
                class="MuiSvgIcon-root MuiSvgIcon-fontSizeMedium css-i4bv87-MuiSvgIcon-root"
                data-testid="ArrowDropDownIcon"
                focusable="false"
                viewBox="0 0 24 24"
              >
                <path
                  d="m7 10 5 5 5-5z"
                />
              </svg>
            </span>
          </button>
          <hr
            class="MuiDivider-root MuiDivider-fullWidth MuiDivider-vertical MuiDivider-flexItem css-kgnlei-MuiDivider-root"
          />
          <button
            aria-controls="share-menu"
            aria-haspopup="true"
            aria-label="share"
            class="MuiButton-root MuiButton-contained MuiButton-containedPrimary MuiButton-sizeMedium MuiButton-containedSizeMedium MuiButtonBase-root  css-sghohy-MuiButtonBase-root-MuiButton-root"
            data-mui-internal-clone-element="true"
            tabindex="0"
            type="button"
          >
            <span
              class="MuiButton-startIcon MuiButton-iconSizeMedium css-1d6wzja-MuiButton-startIcon"
            >
              <svg
                aria-hidden="true"
                class="MuiSvgIcon-root MuiSvgIcon-fontSizeMedium css-i4bv87-MuiSvgIcon-root"
                data-testid="ShareOutlinedIcon"
                focusable="false"
                viewBox="0 0 24 24"
              >
                <path
                  d="M18 16.08c-.76 0-1.44.3-1.96.77L8.91 12.7c.05-.23.09-.46.09-.7s-.04-.47-.09-.7l7.05-4.11c.54.5 1.25.81 2.04.81 1.66 0 3-1.34 3-3s-1.34-3-3-3-3 1.34-3 3c0 .24.04.47.09.7L8.04 9.81C7.5 9.31 6.79 9 6 9c-1.66 0-3 1.34-3 3s1.34 3 3 3c.79 0 1.5-.31 2.04-.81l7.12 4.16c-.05.21-.08.43-.08.65 0 1.61 1.31 2.92 2.92 2.92s2.92-1.31 2.92-2.92c0-1.61-1.31-2.92-2.92-2.92zM18 4c.55 0 1 .45 1 1s-.45 1-1 1-1-.45-1-1 .45-1 1-1zM6 13c-.55 0-1-.45-1-1s.45-1 1-1 1 .45 1 1-.45 1-1 1zm12 7.02c-.55 0-1-.45-1-1s.45-1 1-1 1 .45 1 1-.45 1-1 1z"
                />
              </svg>
            </span>
            Share
            <span
              class="MuiButton-endIcon MuiButton-iconSizeMedium css-9tj150-MuiButton-endIcon"
            >
              <svg
                aria-hidden="true"
                class="MuiSvgIcon-root MuiSvgIcon-fontSizeMedium css-i4bv87-MuiSvgIcon-root"
                data-testid="ArrowDropDownIcon"
                focusable="false"
                viewBox="0 0 24 24"
              >
                <path
                  d="m7 10 5 5 5-5z"
                />
              </svg>
            </span>
          </button>
          <hr
            class="MuiDivider-root MuiDivider-fullWidth MuiDivider-vertical MuiDivider-flexItem css-kgnlei-MuiDivider-root"
          />
          <button
            aria-controls="settings-menu"
            aria-haspopup="true"
            aria-label="settings"
            class="MuiButton-root MuiButton-contained MuiButton-containedPrimary MuiButton-sizeMedium MuiButton-containedSizeMedium MuiButtonBase-root  css-sghohy-MuiButtonBase-root-MuiButton-root"
            data-mui-internal-clone-element="true"
            tabindex="0"
            type="button"
          >
            <span
              class="MuiButton-startIcon MuiButton-iconSizeMedium css-1d6wzja-MuiButton-startIcon"
            >
              <svg
                aria-hidden="true"
                class="MuiSvgIcon-root MuiSvgIcon-fontSizeMedium css-i4bv87-MuiSvgIcon-root"
                data-testid="SettingsIcon"
                focusable="false"
                viewBox="0 0 24 24"
              >
                <path
                  d="M19.14 12.94c.04-.3.06-.61.06-.94 0-.32-.02-.64-.07-.94l2.03-1.58c.18-.14.23-.41.12-.61l-1.92-3.32c-.12-.22-.37-.29-.59-.22l-2.39.96c-.5-.38-1.03-.7-1.62-.94l-.36-2.54c-.04-.24-.24-.41-.48-.41h-3.84c-.24 0-.43.17-.47.41l-.36 2.54c-.59.24-1.13.57-1.62.94l-2.39-.96c-.22-.08-.47 0-.59.22L2.74 8.87c-.12.21-.08.47.12.61l2.03 1.58c-.05.3-.09.63-.09.94s.02.64.07.94l-2.03 1.58c-.18.14-.23.41-.12.61l1.92 3.32c.12.22.37.29.59.22l2.39-.96c.5.38 1.03.7 1.62.94l.36 2.54c.05.24.24.41.48.41h3.84c.24 0 .44-.17.47-.41l.36-2.54c.59-.24 1.13-.56 1.62-.94l2.39.96c.22.08.47 0 .59-.22l1.92-3.32c.12-.22.07-.47-.12-.61l-2.01-1.58zM12 15.6c-1.98 0-3.6-1.62-3.6-3.6s1.62-3.6 3.6-3.6 3.6 1.62 3.6 3.6-1.62 3.6-3.6 3.6z"
                />
              </svg>
            </span>
            Settings
            <span
              class="MuiButton-endIcon MuiButton-iconSizeMedium css-9tj150-MuiButton-endIcon"
            >
              <svg
                aria-hidden="true"
                class="MuiSvgIcon-root MuiSvgIcon-fontSizeMedium css-i4bv87-MuiSvgIcon-root"
                data-testid="ArrowDropDownIcon"
                focusable="false"
                viewBox="0 0 24 24"
              >
                <path
                  d="m7 10 5 5 5-5z"
                />
              </svg>
            </span>
          </button>
        </div>
      </div>
    </div>
    <div
      class="makeStyles-editorSection-2"
    >
      <div
        class="css-1ndrsdj"
        data-split="vertical"
        data-type="SplitPane"
      >
        <div
          style="display: -webkit-box,-moz-box,-ms-flexbox,-webkit-flex,flex; outline: none; min-width: 300px; max-width: calc(100% - 1px*1); flex: 1;"
        >
          <div
            class="makeStyles-editor-3 MuiBox-root css-0"
            style="display: flex;"
          >
            <div
              class="MuiPaper-root MuiPaper-elevation MuiPaper-elevation1 ForwardRef(Accordion)-root-25 MuiAccordion-root MuiAccordion-gutters css-t4qmgb-MuiPaper-root-MuiAccordion-root"
            >
              <div
                aria-expanded="false"
                class="MuiButtonBase-root ForwardRef(AccordionSummary)-root-27 MuiAccordionSummary-root MuiAccordionSummary-gutters css-sh22l5-MuiButtonBase-root-MuiAccordionSummary-root"
                role="button"
                tabindex="0"
              >
                <div
                  class="ForwardRef(AccordionSummary)-content-28 MuiAccordionSummary-content MuiAccordionSummary-contentGutters css-o4b71y-MuiAccordionSummary-content"
                >
                  <p
                    class="MuiTypography-root MuiTypography-body1 css-ahj2mt-MuiTypography-root"
                  >
                    ide.contractManagement.title
                  </p>
                  <div
                    class="MuiChip-root MuiChip-outlined MuiChip-sizeSmall MuiChip-colorDefault MuiChip-outlinedDefault css-911tg4-MuiChip-root"
                  >
                    <span
                      class="MuiChip-label MuiChip-labelSmall css-wjsjww-MuiChip-label"
                    >
                      ide.contractManagement.contractNotInitiated
                    </span>
                  </div>
                </div>
                <div
                  class="MuiAccordionSummary-expandIconWrapper css-yw020d-MuiAccordionSummary-expandIconWrapper"
                >
                  <svg
                    aria-hidden="true"
                    class="MuiSvgIcon-root MuiSvgIcon-fontSizeMedium css-i4bv87-MuiSvgIcon-root"
                    data-testid="ExpandMoreIcon"
                    focusable="false"
                    viewBox="0 0 24 24"
                  >
                    <path
                      d="M16.59 8.59 12 13.17 7.41 8.59 6 10l6 6 6-6z"
                    />
                  </svg>
                </div>
              </div>
              <div
                class="MuiCollapse-root MuiCollapse-vertical MuiCollapse-hidden css-bz4dnt-MuiCollapse-root"
                style="min-height: 0px;"
              >
                <div
                  class="MuiCollapse-wrapper MuiCollapse-vertical css-smkl36-MuiCollapse-wrapper"
                >
                  <div
                    class="MuiCollapse-wrapperInner MuiCollapse-vertical css-9l5vo-MuiCollapse-wrapperInner"
                  >
                    <div
                      class="MuiAccordion-region"
                      role="region"
                    >
                      <div
                        class="MuiAccordionDetails-root makeStyles-buttonContainer-24 css-15v22id-MuiAccordionDetails-root"
                      >
                        <span
                          aria-label="create-contract"
                          class=""
                          data-mui-internal-clone-element="true"
                        >
                          <button
                            class="MuiButton-root MuiButton-outlined MuiButton-outlinedPrimary MuiButton-sizeMedium MuiButton-outlinedSizeMedium MuiButtonBase-root  css-1rwt2y5-MuiButtonBase-root-MuiButton-root"
                            tabindex="0"
                            type="button"
                          >
                            ide.contractManagement.createContract
                          </button>
                        </span>
                        <span
                          aria-label="edit-contract"
                          class=""
                          data-mui-internal-clone-element="true"
                        >
                          <button
                            class="MuiButton-root MuiButton-outlined MuiButton-outlinedPrimary MuiButton-sizeMedium MuiButton-outlinedSizeMedium MuiButtonBase-root  css-1rwt2y5-MuiButtonBase-root-MuiButton-root"
                            tabindex="0"
                            type="button"
                          >
                            ide.contractManagement.editContract
                          </button>
                        </span>
                        <button
                          aria-label="list-contracts"
                          class="MuiButton-root MuiButton-outlined MuiButton-outlinedPrimary MuiButton-sizeMedium MuiButton-outlinedSizeMedium MuiButtonBase-root  css-1rwt2y5-MuiButtonBase-root-MuiButton-root"
                          data-mui-internal-clone-element="true"
                          tabindex="0"
                          type="button"
                        >
                          ide.contractManagement.listDialog.listStoredContracts
                        </button>
                      </div>
                    </div>
                  </div>
                </div>
              </div>
            </div>
            <div
              style="display: flex; flex-grow: 1; overflow: hidden;"
            >
              <section
                style="display: flex; position: relative; text-align: initial; width: 100%; height: 100%;"
              >
                <div
                  style="display: flex; height: 100%; width: 100%; justify-content: center; align-items: center;"
                >
                  Loading...
                </div>
                <div
                  style="width: 100%; display: none;"
                />
              </section>
            </div>
          </div>
        </div>
        <div
          class="sc-htpNat fXAXjb sc-bdVaJa cjjWdp"
          data-attribute="vertical"
          data-type="Resizer"
        />
        <div
          style="display: -webkit-box,-moz-box,-ms-flexbox,-webkit-flex,flex; outline: none; min-width: 200px; max-width: calc(100% - 1px*1); flex: 1;"
        >
          <div
            class="css-i9gxtd"
          >
            <svg
              class="makeStyles-emptyBackground-36"
              height="320"
              viewBox="0 0 250 320"
              width="250"
            >
              <path
                d="M 50,124 C 16.666667,41.333333 33.333333,82.666667 50,124 Z"
                fill="#66aacc"
              />
              <path
                d="M 0,153 V 72 L 125.5,0 252,73 v 54.5 l -72,42.5 -73,-42 19,-11 53,31 53,-31 V 84.5 L 126,22 20,84 v 58 z"
                fill="#006dcc"
              />
              <path
                d="m 51,102 74.20465,-43.07113 71.5907,41.14226 L 178.5,111 126,80 51,123 Z"
                fill="#66aacc"
              />
              <path
                d="m 252,164 v 81 L 126.5,317 0,244 v -54.5 l 72,-42.5 73,42 -19,11 -53,-31 -53,31 v 32.5 L 126,295 232,233 v -58 z"
                fill="#006dcc"
              />
              <path
                d="M 199.79534,215 125.59069,258.07114 54,216.92887 72.29535,206 l 52.49999,31 75,-43 z"
                fill="#66aacc"
              />
            </svg>
            <h2
              class="MuiTypography-root MuiTypography-caption makeStyles-header-37 css-1sn4lm3-MuiTypography-root"
            >
              ide.outputPanel
            </h2>
          </div>
        </div>
      </div>
    </div>
  </div>
</div>
`;
