// Jest Snapshot v1, https://goo.gl/fbAQLP

exports[`Nodes Page Nodes page renders correctly 1`] = `
<div>
  <div
    class="makeStyles-root-1"
    id="nodes"
  >
    <div
      class="makeStyles-content-5"
    >
      <h4
        class="MuiTypography-root MuiTypography-h4 makeStyles-title-2 css-5lbw0b-MuiTypography-root"
      >
        SmartPy Public Nodes
      </h4>
      <div
        style="width: 100%;"
      >
        <span
          class="MuiSkeleton-root MuiSkeleton-text MuiSkeleton-wave css-1dk1h2u-MuiSkeleton-root"
        />
        <span
          class="MuiSkeleton-root MuiSkeleton-text MuiSkeleton-wave css-1dk1h2u-MuiSkeleton-root"
        />
        <span
          class="MuiSkeleton-root MuiSkeleton-text MuiSkeleton-wave css-1dk1h2u-MuiSkeleton-root"
        />
        <span
          class="MuiSkeleton-root MuiSkeleton-text MuiSkeleton-wave css-1dk1h2u-MuiSkeleton-root"
        />
      </div>
    </div>
  </div>
</div>
`;
