[
    {
        "scenario": [
            {
                "action": "newContract",
                "id": "(static_id 0 92)",
                "export": "(\n            template_id (static_id 0 92)\n            storage (record 95 (config (record 96 (admin (literal (address \"tz1\") 97)) (paused (literal (bool False) 98)))) (assets (record 100 (ledger (big_map 101 )) (operators (big_map 102 )) (token_metadata (big_map 103 )) (token_total_supply (big_map 104 )))) (metadata (big_map 106 )))\n            storage_type ((record ((config (record ((admin \"address\") (paused \"bool\")) None)) (assets (record ((ledger (bigmap (tuple (\"address\" \"nat\")) (record ((balance \"nat\")) None))) (operators (bigmap (record ((operator \"address\") (owner \"address\") (token_id \"nat\")) None) \"unit\")) (token_metadata (bigmap \"nat\" (record ((token_id \"nat\") (token_info (map \"string\" \"bytes\"))) None))) (token_total_supply (bigmap \"nat\" \"nat\"))) None)) (metadata (bigmap \"string\" \"bytes\"))) None))\n            messages ((transfer True False False True 113 ((set_type (params 113) (list (record ((from_ \"address\") (txs (list (record ((to_ \"address\") (token_id \"nat\") (amount \"nat\")) (Some ((\"to_\") ((\"token_id\") (\"amount\")))))))) (Some ((\"from_\") (\"txs\"))))) 21) (verify (invert (attr (attr (data) \"config\" 115) \"paused\" 115) 115) (literal (string \"FA2_PAUSED\") None) 115) (forGroup \"transaction\" (params 116) ((forGroup \"tx\" (attr (iter \"transaction\" 116) \"txs\" 117) ((verify (contains (attr (attr (data) \"assets\" 118) \"token_metadata\" 118) (attr (iter \"tx\" 117) \"token_id\" 118) 118) (literal (string \"FA2_TOKEN_UNDEFINED\") None) 118) (verify (or (or (eq (sender) (attr (attr (data) \"config\" 120) \"admin\" 120) 120) (eq (attr (iter \"transaction\" 116) \"from_\" 121) (sender) 121) 120) (contains (attr (attr (data) \"assets\" 122) \"operators\" 122) (record 122 (owner (attr (iter \"transaction\" 116) \"from_\" 123)) (operator (sender)) (token_id (attr (iter \"tx\" 117) \"token_id\" 125))) 122) 120) (literal (string \"FA2_NOT_OPERATOR\") 127) 119) (ifBlock (gt (attr (iter \"tx\" 117) \"amount\" 129) (literal (intOrNat 0) 129) 129) ((defineLocal \"sourceLedger\" (tuple 130 (attr (iter \"transaction\" 116) \"from_\" 130) (attr (iter \"tx\" 117) \"token_id\" 130)) 130) (defineLocal \"recipientLedger\" (tuple 131 (attr (iter \"tx\" 117) \"to_\" 131) (attr (iter \"tx\" 117) \"token_id\" 131)) 131) (verify (ge (attr (getItem (attr (attr (data) \"assets\" 133) \"ledger\" 133) (getLocal \"sourceLedger\" 133) 133) \"balance\" 133) (attr (iter \"tx\" 117) \"amount\" 133) 133) (literal (string \"FA2_INSUFFICIENT_BALANCE\") 134) 132) (defineLocal \"newBalance\" (sub (attr (getItem (attr (attr (data) \"assets\" 138) \"ledger\" 138) (getLocal \"sourceLedger\" 138) 138) \"balance\" 138) (attr (iter \"tx\" 117) \"amount\" 138) 138) 138) (set (attr (getItem (attr (attr (data) \"assets\" 139) \"ledger\" 139) (getLocal \"sourceLedger\" 139) 139) \"balance\" 139) (openVariant (isNat (getLocal \"newBalance\" 139) 139) \"Some\" \"None\" 139) 139) (ifBlock (contains (attr (attr (data) \"assets\" 141) \"ledger\" 141) (getLocal \"recipientLedger\" 141) 141) ((set (attr (getItem (attr (attr (data) \"assets\" 142) \"ledger\" 142) (getLocal \"recipientLedger\" 142) 142) \"balance\" 142) (add (attr (getItem (attr (attr (data) \"assets\" 142) \"ledger\" 142) (getLocal \"recipientLedger\" 142) 142) \"balance\" 142) (attr (iter \"tx\" 117) \"amount\" 142) 142) 142)) 141) (elseBlock ((set (getItem (attr (attr (data) \"assets\" 144) \"ledger\" 144) (getLocal \"recipientLedger\" 144) 144) (record 144 (balance (attr (iter \"tx\" 117) \"amount\" 144))) 144)))) 129)) 117)) 116))) (mint True False False True 158 ((set_type (attr (params 158) \"tokenId\" 158) \"nat\" 159) (set_type (attr (params 158) \"address\" 158) \"address\" 159) (set_type (attr (params 158) \"amount\" 158) \"nat\" 159) (set_type (attr (params 158) \"metadata\" 158) (map \"string\" \"bytes\") 159) (verify (eq (sender) (attr (attr (data) \"config\" 160) \"admin\" 160) 160) (literal (string \"FA2_NOT_ADMIN\") 160) 160) (defineLocal \"user\" (tuple 162 (attr (params 162) \"address\" 162) (attr (params 162) \"tokenId\" 162)) 162) (ifBlock (contains (attr (attr (data) \"assets\" 163) \"ledger\" 163) (getLocal \"user\" 163) 163) ((set (attr (getItem (attr (attr (data) \"assets\" 164) \"ledger\" 164) (getLocal \"user\" 164) 164) \"balance\" 164) (add (attr (getItem (attr (attr (data) \"assets\" 164) \"ledger\" 164) (getLocal \"user\" 164) 164) \"balance\" 164) (attr (params 164) \"amount\" 164) 164) 164)) 163) (elseBlock ((set (getItem (attr (attr (data) \"assets\" 166) \"ledger\" 166) (getLocal \"user\" 166) 166) (record 166 (balance (attr (params 166) \"amount\" 166))) 166))) (ifBlock (invert (contains (attr (attr (data) \"assets\" 168) \"token_metadata\" 168) (attr (params 168) \"tokenId\" 168) 168) 168) ((set (getItem (attr (attr (data) \"assets\" 169) \"token_metadata\" 169) (attr (params 169) \"tokenId\" 169) 169) (record 169 (token_id (attr (params 170) \"tokenId\" 170)) (token_info (attr (params 171) \"metadata\" 171))) 169) (set (getItem (attr (attr (data) \"assets\" 173) \"token_total_supply\" 173) (attr (params 173) \"tokenId\" 173) 173) (attr (params 173) \"amount\" 173) 173)) 168))) (update_operators True False False True 181 ((set_type (params 181) (list (variant ((add_operator (record ((owner \"address\") (operator \"address\") (token_id \"nat\")) (Some ((\"owner\") ((\"operator\") (\"token_id\")))))) (remove_operator (record ((owner \"address\") (operator \"address\") (token_id \"nat\")) (Some ((\"owner\") ((\"operator\") (\"token_id\"))))))) (Some ((\"add_operator\") (\"remove_operator\"))))) 49) (forGroup \"update\" (params 183) ((match_cases (iter \"update\" 183) \"match_184\" ((match (cases_arg \"match_184\" 184) \"add_operator\" \"add_operator\" ((verify (or (eq (attr (variant_arg \"add_operator\" 187) \"owner\" 187) (sender) 187) (eq (sender) (attr (attr (data) \"config\" 187) \"admin\" 187) 187) 187) (literal (string \"FA2_NOT_ADMIN_OR_OWNER\") 188) 186) (set (getItem (attr (attr (data) \"assets\" 190) \"operators\" 190) (variant_arg \"add_operator\" 190) 190) (unit) 190)) 184) (match (cases_arg \"match_184\" 184) \"remove_operator\" \"remove_operator\" ((verify (or (eq (attr (variant_arg \"remove_operator\" 194) \"owner\" 194) (sender) 194) (eq (sender) (attr (attr (data) \"config\" 194) \"admin\" 194) 194) 194) (literal (string \"FA2_NOT_ADMIN_OR_OWNER\") 195) 193) (delItem (attr (attr (data) \"assets\" 197) \"operators\" 197) (variant_arg \"remove_operator\" 197) 197)) 184)) 184)) 183))) (balance_of True False False True 207 ((set_type (params 207) (record ((callback (contract (list (record ((request (record ((owner \"address\") (token_id \"nat\")) (Some ((\"owner\") (\"token_id\"))))) (balance \"nat\")) (Some ((\"request\") (\"balance\"))))))) (requests (list (record ((owner \"address\") (token_id \"nat\")) (Some ((\"owner\") (\"token_id\"))))))) (Some ((\"requests\") (\"callback\")))) 78) (verify (invert (attr (attr (data) \"config\" 209) \"paused\" 209) 209) (literal (string \"FA2_PAUSED\") 209) 209) (defineLocal \"responses\" (list 210 ) 210) (forGroup \"request\" (attr (params 211) \"requests\" 211) ((verify (contains (attr (attr (data) \"assets\" 212) \"token_metadata\" 212) (attr (iter \"request\" 211) \"token_id\" 212) 212) (literal (string \"FA2_TOKEN_UNDEFINED\") 212) 212) (ifBlock (contains (attr (attr (data) \"assets\" 213) \"ledger\" 213) (tuple 213 (attr (iter \"request\" 211) \"owner\" 213) (attr (iter \"request\" 211) \"token_id\" 213)) 213) ((set (getLocal \"responses\" 214) (cons (record 214 (balance (attr (getItem (attr (attr (data) \"assets\" 215) \"ledger\" 215) (tuple 215 (attr (iter \"request\" 211) \"owner\" 215) (attr (iter \"request\" 211) \"token_id\" 215)) 215) \"balance\" 215)) (request (iter \"request\" 211))) (getLocal \"responses\" 214) 214) 214)) 213) (elseBlock ((set (getLocal \"responses\" 219) (cons (record 219 (balance (literal (nat 0) 220)) (request (iter \"request\" 211))) (getLocal \"responses\" 219) 219) 219)))) 211) (set (operations 225) (cons (transfer (getLocal \"responses\" 225) (literal (mutez 0) 225) (attr (params 225) \"callback\" 225) 225) (operations 225) 225) 225))) (pause True False False True 232 ((set_type (params 232) \"bool\" 233) (set (attr (attr (data) \"config\" 234) \"paused\" 234) (params 234) 234))) (set_admin True False False True 241 ((set_type (params 241) \"address\" 242) (set (attr (attr (data) \"config\" 243) \"admin\" 243) (params 243) 243))) (update_metadata True False False True 250 ((set_type (params 250) (bigmap \"string\" \"bytes\") 251) (set (attr (data) \"metadata\" 252) (params 252) 252))))\n            flags ()\n            globals ()\n            views ()\n            entry_points_layout ()\n            initial_metadata ()\n            balance ()\n        )",
                "line_no": 92,
                "show": true,
                "accept_unknown_types": false
            }
        ],
        "longname": "compile_contract",
        "shortname": "compile_contract",
        "kind": "compilation"
    }
]