{
  "packages": [
    "packages/common",
    "packages/originator",
    "packages/smartML",
    "packages/ts-syntax",
    "@smartpy/ts-types",
    "@smartpy/smart-ts-cli",
    "frontend",
    "doc"
  ],
  "version": "independent",
  "npmClient": "npm",
  "command": {
      "bootstrap": {
        "npmClientArgs": ["--no-package-lock"]
      }
  }
}
